myhdl/tb_low_pass_filter.vcd
$date
    Wed Jan  5 18:10:18 2022
$end
$version
    MyHDL 0.11
$end
$timescale
    1ns
$end

$scope module tb_low_pass_filter $end
$var reg 11 ! dout $end
$var reg 1 " clk $end
$var reg 11 # din $end
$var reg 11 $ temp_data $end
$scope module low_pass_filter0 $end
$var reg 1 " clk $end
$var reg 11 % current_out_value $end
$var reg 11 # din $end
$var reg 11 ! dout $end
$var reg 11 & last_in_value $end
$var reg 11 ' last_out_value $end
$upscope $end
$upscope $end

$enddefinitions $end
$dumpvars
b00000000000 !
0"
b00000000000 #
b00000000000 $
b00000000000 %
b00000000000 &
b00000000000 '
$end
#10416
1"
b00110010000 $
#20832
0"
b00110010000 #
b00000100111 %
#31248
1"
b00111000011 $
b00000100111 '
b00110010000 &
b00000100111 !
b00001101101 %
#41664
0"
b00111000011 #
b00001110010 %
#52080
1"
b00111101001 $
b00001110010 !
b00001110010 '
b00111000011 &
b00010110011 %
#62496
0"
b00111101001 #
b00010110111 %
#72912
1"
b00111111011 $
b00010110111 '
b00111101001 &
b00010110111 !
b00011110010 %
#83328
0"
b00111111011 #
b00011110100 %
#93744
1"
b00111111010 $
b00011110100 !
b00011110100 '
b00111111011 &
b00100100111 %
#104160
0"
b00111111010 #
#114576
1"
b00111101101 $
b00100100111 '
b00111111010 &
b00100100111 !
b00101010000 %
#124992
0"
b00111101101 #
b00101001110 %
#135408
1"
b00111100010 $
b00101001110 !
b00101001110 '
b00111101101 &
b00101101100 %
#145824
0"
b00111100010 #
b00101101011 %
#156240
1"
b00111100100 $
b00101101011 '
b00111100010 &
b00101101011 !
b00110000001 %
#166656
0"
b00111100100 #
b00110000010 %
#177072
1"
b00111111001 $
b00110000010 !
b00110000010 '
b00111100100 &
b00110010100 %
#187488
0"
b00111111001 #
b00110010110 %
#197904
1"
b01000011110 $
b00110010110 '
b00111111001 &
b00110010110 !
b00110101000 %
#208320
0"
b01000011110 #
b00110101100 %
#218736
1"
b01001001010 $
b00110101100 !
b00110101100 '
b01000011110 &
b00111000001 %
#229152
0"
b01001001010 #
b00111000110 %
#239568
1"
b01001101110 $
b00111000110 '
b01001001010 &
b00111000110 !
b00111011111 %
#249984
0"
b01001101110 #
b00111100010 %
#260400
1"
b01010000000 $
b00111100010 !
b00111100010 '
b01001101110 &
b00111111100 %
#270816
0"
b01010000000 #
b00111111110 %
#281232
1"
b01001111011 $
b00111111110 '
b01010000000 &
b00111111110 !
b01000010110 %
#291648
0"
b01001111011 #
#302064
1"
b01001100011 $
b01000010110 !
b01000010110 '
b01001111011 &
b01000101001 %
#312480
0"
b01001100011 #
b01000100110 %
#322896
1"
b01001000100 $
b01000100110 '
b01001100011 &
b01000100110 !
b01000110001 %
#333312
0"
b01001000100 #
b01000101110 %
#343728
1"
b01000101011 $
b01000101110 !
b01000101110 '
b01001000100 &
b01000110001 %
#354144
0"
b01000101011 #
b01000101111 %
#364560
1"
b01000100010 $
b01000101111 '
b01000101011 &
b01000101111 !
b01000101101 %
#374976
0"
b01000100010 #
b01000101100 %
#385392
1"
b01000101010 $
b01000101100 !
b01000101100 '
b01000100010 &
b01000101001 %
#395808
0"
b01000101010 #
b01000101010 %
#406224
1"
b01001000000 $
b01000101010 '
b01000101010 &
b01000101010 !
b01000101001 %
#416640
0"
b01001000000 #
b01000101011 %
#427056
1"
b01001010110 $
b01000101011 !
b01000101011 '
b01001000000 &
b01000101110 %
#437472
0"
b01001010110 #
b01000110000 %
#447888
1"
b01001011111 $
b01000110000 '
b01001010110 &
b01000110000 !
b01000110110 %
#458304
0"
b01001011111 #
b01000110111 %
#468720
1"
b01001010100 $
b01000110111 !
b01000110111 '
b01001011111 &
b01000111110 %
#479136
0"
b01001010100 #
b01000111101 %
#489552
1"
b01000110100 $
b01000111101 '
b01001010100 &
b01000111101 !
b01001000000 %
#499968
0"
b01000110100 #
b01000111101 %
#510384
1"
b01000000101 $
b01000110100 &
b01000111010 %
#520800
0"
b01000000101 #
b01000110110 %
#531216
1"
b00111010101 $
b01000110110 '
b01000000101 &
b01000110110 !
b01000101011 %
#541632
0"
b00111010101 #
b01000100111 %
#552048
1"
b00110110001 $
b01000100111 !
b01000100111 '
b00111010101 &
b01000010110 %
#562464
0"
b00110110001 #
b01000010010 %
#572880
1"
b00110011111 $
b01000010010 '
b00110110001 &
b01000010010 !
b00111111110 %
#583296
0"
b00110011111 #
b00111111100 %
#593712
1"
b00110100000 $
b00111111100 !
b00111111100 '
b00110011111 &
b00111101001 %
#604128
0"
b00110100000 #
#614544
1"
b00110101011 $
b00111101001 '
b00110100000 &
b00111101001 !
b00111011010 %
#624960
0"
b00110101011 #
b00111011011 %
#635376
1"
b00110110011 $
b00111011011 !
b00111011011 '
b00110101011 &
b00111010001 %
#645792
0"
b00110110011 #
#656208
1"
b00110101100 $
b00111010001 '
b00110110011 &
b00111010001 !
b00111001010 %
#666624
0"
b00110101100 #
b00111001001 %
#677040
1"
b00110010001 $
b00111001001 !
b00111001001 '
b00110101100 &
b00111000010 %
#687456
0"
b00110010001 #
b00111000000 %
#697872
1"
b00101100110 $
b00111000000 '
b00110010001 &
b00111000000 !
b00110110110 %
#708288
0"
b00101100110 #
b00110110010 %
#718704
1"
b00100110010 $
b00110110010 !
b00110110010 '
b00101100110 &
b00110100010 %
#729120
0"
b00100110010 #
b00110011101 %
#739536
1"
b00100000101 $
b00110011101 '
b00100110010 &
b00110011101 !
b00110000111 %
#749952
0"
b00100000101 #
b00110000011 %
#760368
1"
b00011101001 $
b00110000011 !
b00110000011 '
b00100000101 &
b00101101001 %
#770784
0"
b00011101001 #
b00101100111 %
#781200
1"
b00011100011 $
b00101100111 '
b00011101001 &
b00101100111 !
b00101001101 %
#791616
0"
b00011100011 #
#802032
1"
b00011101111 $
b00101001101 !
b00101001101 '
b00011100011 &
b00100110111 %
#812448
0"
b00011101111 #
b00100111001 %
#822864
1"
b00100000010 $
b00100111001 '
b00011101111 &
b00100111001 !
b00100101010 %
#833280
0"
b00100000010 #
b00100101100 %
#843696
1"
b00100001111 $
b00100101100 !
b00100101100 '
b00100000010 &
b00100100011 %
#854112
0"
b00100001111 #
b00100100100 %
#864528
1"
b00100001011 $
b00100100100 '
b00100001111 &
b00100100100 !
b00100011111 %
#874944
0"
b00100001011 #
#885360
1"
b00011110110 $
b00100011111 !
b00100011111 '
b00100001011 &
b00100011010 %
#895776
0"
b00011110110 #
b00100011000 %
#906192
1"
b00011010011 $
b00100011000 '
b00011110110 &
b00100011000 !
b00100010001 %
#916608
0"
b00011010011 #
b00100001101 %
#927024
1"
b00010110001 $
b00100001101 !
b00100001101 '
b00011010011 &
b00100000001 %
#937440
0"
b00010110001 #
b00011111110 %
#947856
1"
b00010011010 $
b00011111110 '
b00010110001 &
b00011111110 !
b00011101110 %
#958272
0"
b00010011010 #
b00011101100 %
#968688
1"
b00010011001 $
b00011101100 !
b00011101100 '
b00010011010 &
b00011011011 %
#979104
0"
b00010011001 #
#989520
1"
b00010101110 $
b00011011011 '
b00010011001 &
b00011011011 !
b00011001101 %
#999936
0"
b00010101110 #
b00011001111 %
#1010352
1"
b00011010010 $
b00011001111 !
b00011001111 '
b00010101110 &
b00011001000 %
#1020768
0"
b00011010010 #
b00011001011 %
#1031184
1"
b00011111000 $
b00011001011 '
b00011010010 &
b00011001011 !
b00011001100 %
#1041600
0"
b00011111000 #
b00011001111 %
#1052016
1"
b00100010100 $
b00011001111 !
b00011001111 '
b00011111000 &
b00011010110 %
#1062432
0"
b00100010100 #
b00011011001 %
#1072848
1"
b00100011101 $
b00011011001 '
b00100010100 &
b00011011001 !
b00011100100 %
#1083264
0"
b00100011101 #
b00011100101 %
#1093680
1"
b00100010101 $
b00011100101 !
b00011100101 '
b00100011101 &
b00011101111 %
#1104096
0"
b00100010101 #
b00011101110 %
#1114512
1"
b00100000100 $
b00011101110 '
b00100010101 &
b00011101110 !
b00011110101 %
#1124928
0"
b00100000100 #
b00011110011 %
#1135344
1"
b00011111000 $
b00011110011 !
b00011110011 '
b00100000100 &
b00011110110 %
#1145760
0"
b00011111000 #
b00011110100 %
#1156176
1"
b00011111011 $
b00011110100 '
b00011111000 &
b00011110100 !
#1166592
0"
b00011111011 #
#1177008
1"
b00100010100 $
b00011111011 &
b00011110101 %
#1187424
0"
b00100010100 #
b00011110111 %
#1197840
1"
b00101000000 $
b00011110111 '
b00100010100 &
b00011110111 !
b00011111100 %
#1208256
0"
b00101000000 #
b00100000000 %
#1218672
1"
b00101110100 $
b00100000000 !
b00100000000 '
b00101000000 &
b00100001100 %
#1229088
0"
b00101110100 #
b00100010001 %
#1239504
1"
b00110100010 $
b00100010001 '
b00101110100 &
b00100010001 !
b00100100100 %
#1249920
0"
b00110100010 #
b00100101000 %
#1260336
1"
b00111000001 $
b00100101000 !
b00100101000 '
b00110100010 &
b00100111111 %
#1270752
0"
b00111000001 #
b00101000010 %
#1281168
1"
b00111001100 $
b00101000010 '
b00111000001 &
b00101000010 !
b00101011010 %
#1291584
0"
b00111001100 #
b00101011011 %
#1302000
1"
b00111000110 $
b00101011011 !
b00101011011 '
b00111001100 &
b00101110000 %
#1312416
0"
b00111000110 #
#1322832
1"
b00110111010 $
b00101110000 '
b00111000110 &
b00101110000 !
b00110000000 %
#1333248
0"
b00110111010 #
b00101111111 %
#1343664
1"
b00110110110 $
b00101111111 !
b00101111111 '
b00110111010 &
b00110001010 %
#1354080
0"
b00110110110 #
b00110001001 %
#1364496
1"
b00111000010 $
b00110001001 '
b00110110110 &
b00110001001 !
b00110010001 %
#1374912
0"
b00111000010 #
b00110010010 %
#1385328
1"
b00111100010 $
b00110010010 !
b00110010010 '
b00111000010 &
b00110011011 %
#1395744
0"
b00111100010 #
b00110011110 %
#1406160
1"
b01000001111 $
b00110011110 '
b00111100010 &
b00110011110 !
b00110101010 %
#1416576
0"
b01000001111 #
b00110101111 %
#1426992
1"
b01000111101 $
b00110101111 !
b00110101111 '
b01000001111 &
b00111000001 %
#1437408
0"
b01000111101 #
b00111000101 %
#1447824
1"
b01001011111 $
b00111000101 '
b01000111101 &
b00111000101 !
b00111011100 %
#1458240
0"
b01001011111 #
b00111011111 %
#1468656
1"
b01001101101 $
b00111011111 !
b00111011111 '
b01001011111 &
b00111110111 %
#1479072
0"
b01001101101 #
b00111111000 %
#1489488
1"
b01001100101 $
b00111111000 '
b01001101101 &
b00111111000 !
b01000001110 %
#1499904
0"
b01001100101 #
b01000001101 %
#1510320
1"
b01001001110 $
b01000001101 !
b01000001101 '
b01001100101 &
b01000011101 %
#1520736
0"
b01001001110 #
b01000011011 %
#1531152
1"
b01000110101 $
b01000011011 '
b01001001110 &
b01000011011 !
b01000100100 %
#1541568
0"
b01000110101 #
b01000100010 %
#1551984
1"
b01000100110 $
b01000100010 !
b01000100010 '
b01000110101 &
b01000100101 %
#1562400
0"
b01000100110 #
b01000100011 %
#1572816
1"
b01000101001 $
b01000100011 '
b01000100110 &
b01000100011 !
#1583232
0"
b01000101001 #
#1593648
1"
b01000111101 $
b01000101001 &
#1604064
0"
b01000111101 #
b01000100101 %
#1614480
1"
b01001011010 $
b01000100101 '
b01000111101 &
b01000100101 !
b01000101001 %
#1624896
0"
b01001011010 #
b01000101011 %
#1635312
1"
b01001110001 $
b01000101011 !
b01000101011 '
b01001011010 &
b01000110011 %
#1645728
0"
b01001110001 #
b01000110101 %
#1656144
1"
b01001111000 $
b01000110101 '
b01001110001 &
b01000110101 !
b01001000000 %
#1666560
0"
b01001111000 #
#1676976
1"
b01001101000 $
b01001000000 !
b01001000000 '
b01001111000 &
b01001001010 %
#1687392
0"
b01001101000 #
b01001001000 %
#1697808
1"
b01001000100 $
b01001001000 '
b01001101000 &
b01001001000 !
b01001001101 %
#1708224
0"
b01001000100 #
b01001001010 %
#1718640
1"
b01000010111 $
b01001001010 !
b01001001010 '
b01001000100 &
b01001001000 %
#1729056
0"
b01000010111 #
b01001000011 %
#1739472
1"
b00111101110 $
b01001000011 '
b01000010111 &
b01001000011 !
b01000111001 %
#1749888
0"
b00111101110 #
b01000110101 %
#1760304
1"
b00111010011 $
b01000110101 !
b01000110101 '
b00111101110 &
b01000100110 %
#1770720
0"
b00111010011 #
b01000100011 %
#1781136
1"
b00111001100 $
b01000100011 '
b00111010011 &
b01000100011 !
b01000010010 %
#1791552
0"
b00111001100 #
#1801968
1"
b00111010100 $
b01000010010 !
b01000010010 '
b00111001100 &
b01000000011 %
#1812384
0"
b00111010100 #
b01000000100 %
#1822800
1"
b00111100000 $
b01000000100 '
b00111010100 &
b01000000100 !
b00111111010 %
#1833216
0"
b00111100000 #
b00111111011 %
#1843632
1"
b00111100100 $
b00111111011 !
b00111111011 '
b00111100000 &
b00111110101 %
#1854048
0"
b00111100100 #
#1864464
1"
b00111010110 $
b00111110101 '
b00111100100 &
b00111110101 !
b00111110001 %
#1874880
0"
b00111010110 #
b00111101111 %
#1885296
1"
b00110110011 $
b00111101111 !
b00111101111 '
b00111010110 &
b00111101001 %
#1895712
0"
b00110110011 #
b00111100110 %
#1906128
1"
b00110000010 $
b00111100110 '
b00110110011 &
b00111100110 !
b00111011011 %
#1916544
0"
b00110000010 #
b00111010110 %
#1926960
1"
b00101001110 $
b00111010110 !
b00111010110 '
b00110000010 &
b00111000101 %
#1937376
0"
b00101001110 #
b00110111111 %
#1947792
1"
b00100100101 $
b00110111111 '
b00101001110 &
b00110111111 !
b00110101000 %
#1958208
0"
b00100100101 #
b00110100100 %
#1968624
1"
b00100001111 $
b00110100100 !
b00110100100 '
b00100100101 &
b00110001010 %
#1979040
0"
b00100001111 #
b00110001000 %
#1989456
1"
b00100001110 $
b00110001000 '
b00100001111 &
b00110001000 !
b00101101111 %
#1999872
0"
b00100001110 #
#2010288
1"
b00100011011 $
b00101101111 !
b00101101111 '
b00100001110 &
b00101011011 %
#2020704
0"
b00100011011 #
b00101011100 %
#2031120
1"
b00100101001 $
b00101011100 '
b00100011011 &
b00101011100 !
b00101001110 %
#2041536
0"
b00100101001 #
b00101010000 %
#2051952
1"
b00100101100 $
b00101010000 !
b00101010000 '
b00100101001 &
b00101001000 %
#2062368
0"
b00100101100 #
#2072784
1"
b00100011101 $
b00101001000 '
b00100101100 &
b00101001000 !
b00101000010 %
#2083200
0"
b00100011101 #
b00101000000 %
#2093616
1"
b00011111100 $
b00101000000 !
b00101000000 '
b00100011101 &
b00100111000 %
#2104032
0"
b00011111100 #
b00100110101 %
#2114448
1"
b00011010011 $
b00100110101 '
b00011111100 &
b00100110101 !
b00100101001 %
#2124864
0"
b00011010011 #
b00100100101 %
#2135280
1"
b00010101111 $
b00100100101 !
b00100100101 '
b00011010011 &
b00100010100 %
#2145696
0"
b00010101111 #
b00100010001 %
#2156112
1"
b00010011011 $
b00100010001 '
b00010101111 &
b00100010001 !
b00011111101 %
#2166528
0"
b00010011011 #
b00011111011 %
#2176944
1"
b00010011110 $
b00011111011 !
b00011111011 '
b00010011011 &
b00011100111 %
#2187360
0"
b00010011110 #
b00011101000 %
#2197776
1"
b00010110101 $
b00011101000 '
b00010011110 &
b00011101000 !
b00011011001 %
#2208192
0"
b00010110101 #
b00011011011 %
#2218608
1"
b00011010111 $
b00011011011 !
b00011011011 '
b00010110101 &
b00011010011 %
#2229024
0"
b00011010111 #
b00011010110 %
#2239440
1"
b00011110101 $
b00011010110 '
b00011010111 &
b00011010110 !
b00011010101 %
#2249856
0"
b00011110101 #
b00011011000 %
#2260272
1"
b00100000100 $
b00011011000 !
b00011011000 '
b00011110101 &
b00011011101 %
#2270688
0"
b00100000100 #
b00011011110 %
#2281104
1"
b00100000001 $
b00011011110 '
b00100000100 &
b00011011110 !
b00011100101 %
#2291520
0"
b00100000001 #
b00011100100 %
#2301936
1"
b00011110000 $
b00011100100 !
b00011100100 '
b00100000001 &
b00011101001 %
#2312352
0"
b00011110000 #
b00011100111 %
#2322768
1"
b00011011100 $
b00011100111 '
b00011110000 &
b00011100111 !
b00011101000 %
#2333184
0"
b00011011100 #
b00011100110 %
#2343600
1"
b00011010001 $
b00011100110 !
b00011100110 '
b00011011100 &
b00011100011 %
#2354016
0"
b00011010001 #
b00011100010 %
#2364432
1"
b00011011001 $
b00011100010 '
b00011010001 &
b00011100010 !
b00011011110 %
#2374848
0"
b00011011001 #
b00011011111 %
#2385264
1"
b00011111000 $
b00011011111 !
b00011011111 '
b00011011001 &
b00011011101 %
#2395680
0"
b00011111000 #
b00011100000 %
#2406096
1"
b00100100110 $
b00011100000 '
b00011111000 &
b00011100000 !
b00011100100 %
#2416512
0"
b00100100110 #
b00011101000 %
#2426928
1"
b00101011000 $
b00011101000 !
b00011101000 '
b00100100110 &
b00011110011 %
#2437344
0"
b00101011000 #
b00011111000 %
#2447760
1"
b00110000001 $
b00011111000 '
b00101011000 &
b00011111000 !
b00100001010 %
#2458176
0"
b00110000001 #
b00100001110 %
#2468592
1"
b00110010110 $
b00100001110 !
b00100001110 '
b00110000001 &
b00100100100 %
#2479008
0"
b00110010110 #
b00100100110 %
#2489424
1"
b00110011001 $
b00100100110 '
b00110010110 &
b00100100110 !
b00100111011 %
#2499840
0"
b00110011001 #
#2510256
1"
b00110010000 $
b00100111011 !
b00100111011 '
b00110011001 &
b00101001101 %
#2520672
0"
b00110010000 #
b00101001100 %
#2531088
1"
b00110000111 $
b00101001100 '
b00110010000 &
b00101001100 !
b00101011000 %
#2541504
0"
b00110000111 #
#2551920
1"
b00110001010 $
b00101011000 !
b00101011000 '
b00110000111 &
b00101100000 %
#2562336
0"
b00110001010 #
b00101100001 %
#2572752
1"
b00110011111 $
b00101100001 '
b00110001010 &
b00101100001 !
b00101101000 %
#2583168
0"
b00110011111 #
b00101101010 %
#2593584
1"
b00111001000 $
b00101101010 !
b00101101010 '
b00110011111 &
b00101110100 %
#2604000
0"
b00111001000 #
b00101111000 %
